C9AD026	L	Start, Current Program Config Report
EBAE006	L	1,P1
06AF02B	L	2,P1\X\Test Type=Diff Press Decay-dP	 	c 
91B0034	L	3,P1\X\=                                     	 	a 
4CB1034	L	4,P1\X\=Measures the Pressure Loss (dP),     	 	a 
E1B2034	L	5,P1\X\=determined from the differential loss	 	a 
79B3034	L	6,P1\X\=between the test part and the        	 	a 
49B4034	L	7,P1\X\=reference volume over the duration of	 	a 
C6B5034	L	8,P1\X\=the test timer. The result is        	 	a 
76B6034	L	9,P1\X\=presented in units of delta pressure.	 	a 
29B7021	L	10,P1\R\Tool Ext 1=2.50	 sec	f 
F8B801D	L	11,P1\R\Charge=5.00	 sec	f 
D6B901B	L	12,P1\R\Fill=5.00	 sec	f 
E8BA021	L	13,P1\R\Stabilize=10.00	 sec	f 
45BB01F	L	14,P1\R\Isolation=50.00	 %	f 
6CBC01C	L	15,P1\R\Test=10.00	 sec	f 
E3BD01E	L	16,P1\R\Exhaust=0.50	 sec	f 
DDBE021	L	17,P1\R\Tool Ret 1=1.00	 sec	f 
82BF029	L	18,P1\P\Charge Min Press=0.400	 mbar	f 
3EC002E	L	19,P1\P\Charge Target Press=140.000	 mbar	f 
77C102C	L	20,P1\P\Charge Max Press=6894.757	 mbar	f 
49C202A	L	21,P1\P\Minimum Pressure=95.000	 mbar	f 
27C302A	L	22,P1\P\Target Pressure=100.000	 mbar	f 
39C402B	L	23,P1\P\Maximum Pressure=120.000	 mbar	f 0
E5C502A	L	24,P1\P\Target Press Window=100.00	 %	f 
DBC602A	L	25,P1\S\Low Limit Loss=-6894.758	 dPa	f 
3EC7028	L	26,P1\S\High Limit Loss=90.000	 dPa	f 
D5C8023	L	27,P1\S\Decay Direction=Loss	 	c 
F8C9024	L	28,P1\S\Test Evaluation=F/P/F	 	c 
74CA023	L	29,P1\S\Loss Offset=0.000	 dPa	f 
01CB01D	L	30,P1\S\EDC Enabled=No	 	c 
72CC021	L	31,P1\S\EDC Percentage=25%	 	c 
26CD01E	L	32,P1\S\EDC Quantity=30	 	i 
4BCE01F	L	33,P1\M\Program Name=H R	 	a 
CACF023	L	34,P1\M\Barcode Required=Yes	 	c 
A9D0024	L	35,P1\M\Barcode Method=Unique	 	c 
20D1024	L	36,P1\M\Copy to Target Prog=1	 	i 
47D201E	L	37,P1\M\Copy Program=No	 	c 
4AD3023	L	38,P1\M\Retain Part Press=No	 	c 
11D4026	L	39,P1\M\Malfunction Eval=Reject	 	c 
A1D5030	L	40,P1\M\Pressure Select=Pressure Source 1	 	c 
79D6023	L	41,P1\M\Leak Std Select=None	 	c 
8BD7022	L	42,P1\M\ERC Method=Disabled	 	c 
63D802A	L	43,P1\M\Prefill Method=Fixed Charge	 	c 
52D902A	L	44,P1\M\Pressure Correction=Enabled	 	c 
B0DA022	L	45,P1\M\Exhaust Method=Dump	 	c 
49DB024	L	46,P1\A\Autorun Relax=3.00	 sec	f 
18DC026	L	47,P1\A\Autorun Method=Standard	 	c 
57DD025	L	48,P1\A\Autorun Cycle Count=10	 	i 
99DE020	L	49,P1\A\Autorun Enable=No	 	c 
58DF01C	L	50,P1\U\Time Unit=sec	 	c 
9BE0022	L	51,P1\U\Time Precision=X.XX	 	c 
F9E1021	L	52,P1\U\Pressure Unit=mbar	 	c 
F4E2027	L	53,P1\U\Pressure Precision=X.XXX	 	c 
FFE3022	L	54,P1\U\d Pressure Unit=dPa	 	c 
F2E4026	L	55,P1\U\d Press Precision=X.XXX	 	c 
24E501C	L	56,P1\I\I/O ID=786561	 	a 
99E601E	L	57,P1\I\1=Start Channel	 	c 
49E701D	L	58,P1\I\2=Part Present	 	c 
1EE801B	L	59,P1\I\3=Unassigned	 	c 
66E901B	L	60,P1\I\4=Unassigned	 	c 
48EA01B	L	61,P1\I\5=Unassigned	 	c 
BEEB01B	L	62,P1\I\6=Unassigned	 	c 
ECEC01B	L	63,P1\I\7=Unassigned	 	c 
BFED01C	L	64,P1\I\8=Constrained	 	c 
A5EE01B	L	65,P1\I\9=Unassigned	 	c 
2EEF01C	L	66,P1\I\10=Unassigned	 	c 
46F001C	L	67,P1\I\11=Unassigned	 	c 
DDF101C	L	68,P1\I\12=Unassigned	 	c 
FBF201C	L	69,P1\O\I/O ID=786561	 	a 
D5F301D	L	70,P1\O\1=Press Select	 	c 
27F401F	L	71,P1\O\2=Program Reject	 	c 
71F501C	L	72,P1\O\3=Test Passed	 	c 
1BF601E	L	73,P1\O\4=Tool Extend 1	 	c 
FAF701B	L	74,P1\O\5=Unassigned	 	c 
52F801B	L	75,P1\O\6=Unassigned	 	c 
08F901C	L	76,P1\O\7=Constrained	 	c 
5EFA01F	L	77,P1\O\8=Program Reject	 	c 
D6FB01C	L	78,P1\O\9=Constrained	 	c 
13FC01D	L	79,P1\O\10=Constrained	 	c 
70FD01C	L	80,P1\O\11=Unassigned	 	c 
98FE01C	L	81,P1\O\12=Unassigned	 	c 
11FF020	L	82,P1\T\Tooling Option=On	 	c 
EF00022	L	83,P1\T\Number of Motions=1	 	c 
6C01025	L	84,P1\T\Two Inputs to Start=No	 	c 
DE0202C	L	85,P1\T\Part Present Check=Test Start	 	c 
E60301E	L	86,P1\T\Motion Number=1	 	c 
5A04024	L	87,P1\T\Retract on Reject=Yes	 	c 
690501D	L	88,P1\T\Part Mark=None	 	c 
C306026	L	89,P1\T\Tooling Feedback 1=None	 	c 
8507025	L	Stop, Current Program Config Report
2E08028	V	I\S\RS232 1 REPORT=Cur Prog Config		c 
